Master en Big Data. Fundamentos Matemáticos del Análisis de Datos (FMAD).
…
Luego, separamos la variable gender_age en las variables gender y age correspondientes, haciendo uso de la funcion separate()

Separamos la columna week para quedarnos con el valor numérico que identifica a cada una de las semanas, y borramos la columna en la que se queda el valor repetido ‘week’

Para terminar y dejar el DataFrame limpio, pasamos la columna week de tipo ‘character’ a numérica. Aunque luego, en función del estudio que se pretenda realizar sobre el conjunto de datos en cuestión, se podrá cambiar el tipo de variable, según interese.

ResultsTidy = testResults %>%
pivot_longer(week1:week5, names_to = "week") %>%
  separate(gender_age,c("gender","age"),sep="_") %>%
  separate(week,c('w','week'),sep=4)%>%
  mutate(w=NULL) 
ResultsTidy$week=as.numeric(ResultsTidy$week)
ResultsTidy

## # A tibble: 1,000 x 7
##    name     id gender age   test_number  week value
##    <chr> <dbl> <chr>  <chr>       <dbl> <dbl> <dbl>
##  1 Jacob   108 m      20              1     1     8
##  2 Jacob   108 m      20              1     2     5
##  3 Jacob   108 m      20              1     3     7
##  4 Jacob   108 m      20              1     4     5
##  5 Jacob   108 m      20              1     5     6
##  6 Jacob   108 m      20              2     1     2
##  7 Jacob   108 m      20              2     2     2
##  8 Jacob   108 m      20              2     3     4
##  9 Jacob   108 m      20              2     4     0
## 10 Jacob   108 m      20              2     5     3
## # ... with 990 more rows
…
(who_Ejer=who %>%
  pivot_longer(
    cols = new_sp_m014:newrel_f65, 
    names_to = "key", 
    values_to = "cases", 
    values_drop_na = TRUE
  ) %>% 
  mutate(
    key = stringr::str_replace(key, "newrel", "new_rel")
  ) %>%
  separate(key, c("new", "var", "sexage")) %>% 
  select(-new, -iso2, -iso3) %>% 
  separate(sexage, c("sex", "age"), sep = 1))

## # A tibble: 76,046 x 6
##    country      year var   sex   age   cases
##    <chr>       <int> <chr> <chr> <chr> <int>
##  1 Afghanistan  1997 sp    m     014       0
##  2 Afghanistan  1997 sp    m     1524     10
##  3 Afghanistan  1997 sp    m     2534      6
##  4 Afghanistan  1997 sp    m     3544      3
##  5 Afghanistan  1997 sp    m     4554      5
##  6 Afghanistan  1997 sp    m     5564      2
##  7 Afghanistan  1997 sp    m     65        0
##  8 Afghanistan  1997 sp    f     014       5
##  9 Afghanistan  1997 sp    f     1524     38
## 10 Afghanistan  1997 sp    f     2534     36
## # ... with 76,036 more rows

Calculamos el numero total de casos, agrupados por sexo, país y año, obteniendo como resultado el siguiente DataFrame:

(who_TABLE=who_Ejer %>%
  group_by(country, year, sex) %>%
  summarise(cases = sum(cases)))

## `summarise()` has grouped output by 'country', 'year'. You can override using the `.groups` argument.

## # A tibble: 6,921 x 4
## # Groups:   country, year [3,484]
##    country      year sex   cases
##    <chr>       <int> <chr> <int>
##  1 Afghanistan  1997 f       102
##  2 Afghanistan  1997 m        26
##  3 Afghanistan  1998 f      1207
##  4 Afghanistan  1998 m       571
##  5 Afghanistan  1999 f       517
##  6 Afghanistan  1999 m       228
##  7 Afghanistan  2000 f      1751
##  8 Afghanistan  2000 m       915
##  9 Afghanistan  2001 f      3062
## 10 Afghanistan  2001 m      1577
## # ... with 6,911 more rows
…
(who_TABLE1=who_Ejer %>%
  group_by(country, year, sex) %>%
  filter(year > 1995) %>%
  summarise(cases = sum(cases)))

## `summarise()` has grouped output by 'country', 'year'. You can override using the `.groups` argument.

## # A tibble: 6,594 x 4
## # Groups:   country, year [3,320]
##    country      year sex   cases
##    <chr>       <int> <chr> <int>
##  1 Afghanistan  1997 f       102
##  2 Afghanistan  1997 m        26
##  3 Afghanistan  1998 f      1207
##  4 Afghanistan  1998 m       571
##  5 Afghanistan  1999 f       517
##  6 Afghanistan  1999 m       228
##  7 Afghanistan  2000 f      1751
##  8 Afghanistan  2000 m       915
##  9 Afghanistan  2001 f      3062
## 10 Afghanistan  2001 m      1577
## # ... with 6,584 more rows
…
